<?xml version="1.0" encoding="UTF-8" standalone="no"?>
<!-- Generator: Adobe Illustrator 18.0.0, SVG Export Plug-In . SVG Version: 6.00 Build 0)  -->

<svg
   xmlns:dc="http://purl.org/dc/elements/1.1/"
   xmlns:cc="http://creativecommons.org/ns#"
   xmlns:rdf="http://www.w3.org/1999/02/22-rdf-syntax-ns#"
   xmlns:svg="http://www.w3.org/2000/svg"
   xmlns="http://www.w3.org/2000/svg"
   xmlns:sodipodi="http://sodipodi.sourceforge.net/DTD/sodipodi-0.dtd"
   xmlns:inkscape="http://www.inkscape.org/namespaces/inkscape"
   version="1.1"
   id="Capa_1"
   x="0px"
   y="0px"
   viewBox="0 0 691.67332 691.67332"
   xml:space="preserve"
   sodipodi:docname="salida.svg"
   inkscape:version="0.92.4 (5da689c313, 2019-01-14)"
   width="691.67334"
   height="691.67334"><metadata
   id="metadata38"><rdf:RDF><cc:Work
       rdf:about=""><dc:format>image/svg+xml</dc:format><dc:type
         rdf:resource="http://purl.org/dc/dcmitype/StillImage" /><dc:title /></cc:Work></rdf:RDF></metadata><defs
   id="defs36" /><sodipodi:namedview
   pagecolor="#ffffff"
   bordercolor="#666666"
   borderopacity="1"
   objecttolerance="10"
   gridtolerance="10"
   guidetolerance="10"
   inkscape:pageopacity="0"
   inkscape:pageshadow="2"
   inkscape:window-width="1920"
   inkscape:window-height="1025"
   id="namedview34"
   showgrid="false"
   inkscape:zoom="0.67424858"
   inkscape:cx="478.72898"
   inkscape:cy="420.8097"
   inkscape:window-x="0"
   inkscape:window-y="27"
   inkscape:window-maximized="1"
   inkscape:current-layer="Capa_1"
   fit-margin-top="0"
   fit-margin-left="0"
   fit-margin-right="0"
   fit-margin-bottom="0"
   inkscape:snap-bbox="true"
   inkscape:bbox-nodes="true"
   inkscape:bbox-paths="true"
   inkscape:snap-bbox-edge-midpoints="true"
   inkscape:snap-bbox-midpoints="true"
   inkscape:object-paths="true"
   inkscape:snap-intersection-paths="true"
   inkscape:snap-smooth-nodes="true"
   inkscape:snap-midpoints="true"
   inkscape:snap-global="true"
   inkscape:snap-page="true"
   inkscape:snap-object-midpoints="true"
   inkscape:snap-center="true"
   showguides="true"
   inkscape:guide-bbox="true" />
<rect
   style="fill:#e5ad7f;stroke:#000000;stroke-width:17.18631935;fill-opacity:1"
   id="rect47"
   width="471.9006"
   height="471.9006"
   x="253.13663"
   y="-235.9503"
   transform="rotate(45)" /><ellipse
   style="fill:#000000;fill-opacity:1;stroke:#000000;stroke-width:24;stroke-linecap:butt;stroke-miterlimit:4;stroke-dasharray:none"
   id="path843"
   cx="336.28024"
   cy="257.79749"
   rx="34.030163"
   ry="72.556404" /><path
   sodipodi:nodetypes="cc"
   inkscape:connector-curvature="0"
   id="path860"
   d="m 302.28769,253.32558 c 97.76235,-4.88959 169.86784,39.94243 159.56593,161.57299 l -60.71279,-84.55983 -64.86058,0.0152 z"
   style="fill:#e5ad7f;stroke:none;stroke-width:15.96025276;stroke-linecap:butt;stroke-linejoin:miter;stroke-miterlimit:4;stroke-dasharray:none;stroke-opacity:1;fill-opacity:1" />
<g
   id="g3"
   transform="translate(70.170262,96.762509)">
</g>
<g
   id="g5"
   transform="translate(70.170262,96.762509)">
</g>
<g
   id="g7"
   transform="translate(70.170262,96.762509)">
</g>
<g
   id="g9"
   transform="translate(70.170262,96.762509)">
</g>
<g
   id="g11"
   transform="translate(70.170262,96.762509)">
</g>
<g
   id="g13"
   transform="translate(70.170262,96.762509)">
</g>
<g
   id="g15"
   transform="translate(70.170262,96.762509)">
</g>
<g
   id="g17"
   transform="translate(70.170262,96.762509)">
</g>
<g
   id="g19"
   transform="translate(70.170262,96.762509)">
</g>
<g
   id="g21"
   transform="translate(70.170262,96.762509)">
</g>
<g
   id="g23"
   transform="translate(70.170262,96.762509)">
</g>
<g
   id="g25"
   transform="translate(70.170262,96.762509)">
</g>
<g
   id="g27"
   transform="translate(70.170262,96.762509)">
</g>
<g
   id="g29"
   transform="translate(70.170262,96.762509)">
</g>
<g
   id="g31"
   transform="translate(70.170262,96.762509)">
</g>
<path
   style="fill:none;stroke:#000000;stroke-width:24;stroke-linecap:round;stroke-linejoin:miter;stroke-miterlimit:4;stroke-dasharray:none;stroke-opacity:1"
   d="M 336.29115,185.25476 220.31284,185.1184"
   id="path1127"
   inkscape:connector-curvature="0" /><path
   style="fill:none;stroke:#000000;stroke-width:24;stroke-linecap:butt;stroke-linejoin:miter;stroke-miterlimit:4;stroke-dasharray:none;stroke-opacity:1"
   d="m 154.09045,442.74927 c 27.27105,-0.0896 48.11136,-19.60925 59.26601,-34.53585 17.32242,15.49328 31.91822,31.74916 66.78221,34.52055 30.44798,-3.37489 44.15718,-18.90273 57.74246,-34.52055 22.30004,17.88607 34.68437,33.70921 66.79067,34.52034 28.62397,-3.06095 44.14362,-17.92202 57.73401,-34.52034 16.49081,16.4174 44.29199,35.89183 65.70157,34.53571"
   id="path1149"
   inkscape:connector-curvature="0"
   sodipodi:nodetypes="ccccccc" /><path
   inkscape:connector-curvature="0"
   id="path1160"
   d="M 330.87145,330.54961 199.72458,330.04914"
   style="fill:none;stroke:#000000;stroke-width:24;stroke-linecap:round;stroke-linejoin:round;stroke-miterlimit:4;stroke-dasharray:none;stroke-opacity:1" /><path
   style="fill:none;stroke:#000000;stroke-width:24;stroke-linecap:butt;stroke-linejoin:miter;stroke-miterlimit:4;stroke-dasharray:none;stroke-opacity:1"
   d="m 302.28769,253.32558 c 97.76235,-4.88959 169.86784,39.94243 159.56593,161.57299"
   id="path848"
   inkscape:connector-curvature="0"
   sodipodi:nodetypes="cc" /><path
   style="fill:none;stroke:#000000;stroke-width:24;stroke-linecap:round;stroke-linejoin:round;stroke-miterlimit:4;stroke-dasharray:none;stroke-opacity:1"
   d="m 336.28024,330.3539 c 22.49651,-2.62732 40.91422,22.66455 40.00966,106.27488"
   id="path850"
   inkscape:connector-curvature="0"
   sodipodi:nodetypes="cc" /><path
   style="fill:none;stroke:#000000;stroke-width:24;stroke-linecap:butt;stroke-linejoin:miter;stroke-miterlimit:4;stroke-dasharray:none;stroke-opacity:1"
   d="m 302.28769,253.3256 c 0.82027,36.03432 6.24673,67.52926 33.99256,77.02832"
   id="path856"
   inkscape:connector-curvature="0"
   sodipodi:nodetypes="cc" /><path
   sodipodi:nodetypes="ccccc"
   inkscape:connector-curvature="0"
   id="path858"
   d="m 230.20479,519.05369 c 30.44797,-3.37488 44.15717,-18.90272 57.74246,-34.52054 22.30003,17.88607 34.68436,33.7092 66.79067,34.52034 28.62396,-3.06096 44.14361,-17.92203 57.734,-34.52034 16.49081,16.4174 44.29199,35.89183 65.70157,34.53571"
   style="fill:none;stroke:#000000;stroke-width:24;stroke-linecap:butt;stroke-linejoin:miter;stroke-miterlimit:4;stroke-dasharray:none;stroke-opacity:1" /></svg>