<?xml version="1.0" encoding="UTF-8" standalone="no"?>
<!-- Generator: Adobe Illustrator 18.0.0, SVG Export Plug-In . SVG Version: 6.00 Build 0)  -->

<svg
   xmlns:dc="http://purl.org/dc/elements/1.1/"
   xmlns:cc="http://creativecommons.org/ns#"
   xmlns:rdf="http://www.w3.org/1999/02/22-rdf-syntax-ns#"
   xmlns:svg="http://www.w3.org/2000/svg"
   xmlns="http://www.w3.org/2000/svg"
   xmlns:sodipodi="http://sodipodi.sourceforge.net/DTD/sodipodi-0.dtd"
   xmlns:inkscape="http://www.inkscape.org/namespaces/inkscape"
   version="1.1"
   id="Capa_1"
   x="0px"
   y="0px"
   viewBox="0 0 691.67332 691.67332"
   xml:space="preserve"
   sodipodi:docname="darse_vuelta.svg"
   inkscape:version="0.92.4 (5da689c313, 2019-01-14)"
   width="691.67334"
   height="691.67334"><metadata
   id="metadata38"><rdf:RDF><cc:Work
       rdf:about=""><dc:format>image/svg+xml</dc:format><dc:type
         rdf:resource="http://purl.org/dc/dcmitype/StillImage" /><dc:title></dc:title></cc:Work></rdf:RDF></metadata><defs
   id="defs36" /><sodipodi:namedview
   pagecolor="#ffffff"
   bordercolor="#666666"
   borderopacity="1"
   objecttolerance="10"
   gridtolerance="10"
   guidetolerance="10"
   inkscape:pageopacity="0"
   inkscape:pageshadow="2"
   inkscape:window-width="1920"
   inkscape:window-height="1025"
   id="namedview34"
   showgrid="false"
   inkscape:zoom="0.95353147"
   inkscape:cx="279.91067"
   inkscape:cy="368.31507"
   inkscape:window-x="0"
   inkscape:window-y="27"
   inkscape:window-maximized="1"
   inkscape:current-layer="Capa_1"
   fit-margin-top="0"
   fit-margin-left="0"
   fit-margin-right="0"
   fit-margin-bottom="0" />
<rect
   style="fill:#ffcc00;stroke:#000000;stroke-width:17.18631935"
   id="rect47"
   width="471.9006"
   height="471.9006"
   x="253.13663"
   y="-235.9503"
   transform="rotate(45)" /><path
   d="m 346.19612,133.99297 c -90.481,0 -164.08594,73.6059 -164.08594,164.0879 v 195.10352 h 83.31836 V 298.08087 c 0,-44.532 36.22558,-80.76758 80.76758,-80.76758 44.54,0 80.76563,36.23458 80.76563,80.76758 v 43.18164 l -35.60547,-23.98633 c -1.855,-1.254 -4.32786,-1.09795 -6.00586,0.37305 -1.693,1.474 -2.1795,3.90601 -1.1875,5.91601 l 80.0332,161.91407 c 0.83,1.685 2.53778,2.75 4.42578,2.75 1.889,0 3.59774,-1.065 4.42774,-2.75 l 80.04883,-161.91407 c 0.994,-2.011 0.50549,-4.44396 -1.1875,-5.91796 -1.676,-1.479 -4.14886,-1.63286 -6.00586,-0.38086 l -35.6211,23.99414 v -43.18164 c 0,-90.48101 -73.60689,-164.08595 -164.08789,-164.08595 z"
   id="XMLID_12_"
   inkscape:connector-curvature="0" />
<g
   id="g3"
   transform="translate(70.170262,96.762509)">
</g>
<g
   id="g5"
   transform="translate(70.170262,96.762509)">
</g>
<g
   id="g7"
   transform="translate(70.170262,96.762509)">
</g>
<g
   id="g9"
   transform="translate(70.170262,96.762509)">
</g>
<g
   id="g11"
   transform="translate(70.170262,96.762509)">
</g>
<g
   id="g13"
   transform="translate(70.170262,96.762509)">
</g>
<g
   id="g15"
   transform="translate(70.170262,96.762509)">
</g>
<g
   id="g17"
   transform="translate(70.170262,96.762509)">
</g>
<g
   id="g19"
   transform="translate(70.170262,96.762509)">
</g>
<g
   id="g21"
   transform="translate(70.170262,96.762509)">
</g>
<g
   id="g23"
   transform="translate(70.170262,96.762509)">
</g>
<g
   id="g25"
   transform="translate(70.170262,96.762509)">
</g>
<g
   id="g27"
   transform="translate(70.170262,96.762509)">
</g>
<g
   id="g29"
   transform="translate(70.170262,96.762509)">
</g>
<g
   id="g31"
   transform="translate(70.170262,96.762509)">
</g>
</svg>